{
  "service": {
    "service": "G3-PhotoAlbum",
    "serviceObject": {
      "name": "G3-PhotoAlbum"
    },
    "provider": {
      "stage": "development",
      "region": "eu-central-1",
      "variableSyntax": "\\${([ ~:a-zA-Z0-9._'\",\\-\\/\\(\\)]+?)}",
      "name": "aws",
      "runtime": "nodejs6.10",
      "environment": {
        "RDS_HOSTNAME": "progetti.cnxf2fvitdqk.eu-central-1.rds.amazonaws.com",
        "RDS_PORT": 3306,
        "RDS_DB_NAME": "Progetto1",
        "RDS_USERNAME": "root",
        "RDS_PASSWORD": "Alberto1"
      },
      "versionFunctions": true,
      "remoteFunctionData": null,
      "compiledCloudFormationTemplate": {
        "AWSTemplateFormatVersion": "2010-09-09",
        "Description": "The AWS CloudFormation template for this Serverless application",
        "Resources": {
          "ServerlessDeploymentBucket": {
            "Type": "AWS::S3::Bucket"
          },
          "GetLogGroup": {
            "Type": "AWS::Logs::LogGroup",
            "Properties": {
              "LogGroupName": "/aws/lambda/G3-PhotoAlbum-development-get"
            }
          },
          "PostLogGroup": {
            "Type": "AWS::Logs::LogGroup",
            "Properties": {
              "LogGroupName": "/aws/lambda/G3-PhotoAlbum-development-post"
            }
          },
          "GetSingleLogGroup": {
            "Type": "AWS::Logs::LogGroup",
            "Properties": {
              "LogGroupName": "/aws/lambda/G3-PhotoAlbum-development-getSingle"
            }
          },
          "PutSingleLogGroup": {
            "Type": "AWS::Logs::LogGroup",
            "Properties": {
              "LogGroupName": "/aws/lambda/G3-PhotoAlbum-development-putSingle"
            }
          },
          "DeleteSingleLogGroup": {
            "Type": "AWS::Logs::LogGroup",
            "Properties": {
              "LogGroupName": "/aws/lambda/G3-PhotoAlbum-development-deleteSingle"
            }
          },
          "IamRoleLambdaExecution": {
            "Type": "AWS::IAM::Role",
            "Properties": {
              "AssumeRolePolicyDocument": {
                "Version": "2012-10-17",
                "Statement": [
                  {
                    "Effect": "Allow",
                    "Principal": {
                      "Service": [
                        "lambda.amazonaws.com"
                      ]
                    },
                    "Action": [
                      "sts:AssumeRole"
                    ]
                  }
                ]
              },
              "Policies": [
                {
                  "PolicyName": {
                    "Fn::Join": [
                      "-",
                      [
                        "development",
                        "G3-PhotoAlbum",
                        "lambda"
                      ]
                    ]
                  },
                  "PolicyDocument": {
                    "Version": "2012-10-17",
                    "Statement": [
                      {
                        "Effect": "Allow",
                        "Action": [
                          "logs:CreateLogStream"
                        ],
                        "Resource": [
                          {
                            "Fn::Sub": "arn:aws:logs:${AWS::Region}:${AWS::AccountId}:log-group:/aws/lambda/G3-PhotoAlbum-development-get:*"
                          },
                          {
                            "Fn::Sub": "arn:aws:logs:${AWS::Region}:${AWS::AccountId}:log-group:/aws/lambda/G3-PhotoAlbum-development-post:*"
                          },
                          {
                            "Fn::Sub": "arn:aws:logs:${AWS::Region}:${AWS::AccountId}:log-group:/aws/lambda/G3-PhotoAlbum-development-getSingle:*"
                          },
                          {
                            "Fn::Sub": "arn:aws:logs:${AWS::Region}:${AWS::AccountId}:log-group:/aws/lambda/G3-PhotoAlbum-development-putSingle:*"
                          },
                          {
                            "Fn::Sub": "arn:aws:logs:${AWS::Region}:${AWS::AccountId}:log-group:/aws/lambda/G3-PhotoAlbum-development-deleteSingle:*"
                          }
                        ]
                      },
                      {
                        "Effect": "Allow",
                        "Action": [
                          "logs:PutLogEvents"
                        ],
                        "Resource": [
                          {
                            "Fn::Sub": "arn:aws:logs:${AWS::Region}:${AWS::AccountId}:log-group:/aws/lambda/G3-PhotoAlbum-development-get:*:*"
                          },
                          {
                            "Fn::Sub": "arn:aws:logs:${AWS::Region}:${AWS::AccountId}:log-group:/aws/lambda/G3-PhotoAlbum-development-post:*:*"
                          },
                          {
                            "Fn::Sub": "arn:aws:logs:${AWS::Region}:${AWS::AccountId}:log-group:/aws/lambda/G3-PhotoAlbum-development-getSingle:*:*"
                          },
                          {
                            "Fn::Sub": "arn:aws:logs:${AWS::Region}:${AWS::AccountId}:log-group:/aws/lambda/G3-PhotoAlbum-development-putSingle:*:*"
                          },
                          {
                            "Fn::Sub": "arn:aws:logs:${AWS::Region}:${AWS::AccountId}:log-group:/aws/lambda/G3-PhotoAlbum-development-deleteSingle:*:*"
                          }
                        ]
                      }
                    ]
                  }
                }
              ],
              "Path": "/",
              "RoleName": {
                "Fn::Join": [
                  "-",
                  [
                    "G3-PhotoAlbum",
                    "development",
                    "eu-central-1",
                    "lambdaRole"
                  ]
                ]
              }
            }
          },
          "GetLambdaFunction": {
            "Type": "AWS::Lambda::Function",
            "Properties": {
              "Code": {
                "S3Bucket": {
                  "Ref": "ServerlessDeploymentBucket"
                },
                "S3Key": "serverless/G3-PhotoAlbum/development/1523397578193-2018-04-10T21:59:38.193Z/G3-PhotoAlbum.zip"
              },
              "FunctionName": "G3-PhotoAlbum-development-get",
              "Handler": "PhotoAlbum/get.handler",
              "MemorySize": 1024,
              "Role": {
                "Fn::GetAtt": [
                  "IamRoleLambdaExecution",
                  "Arn"
                ]
              },
              "Runtime": "nodejs6.10",
              "Timeout": 6,
              "Environment": {
                "Variables": {
                  "RDS_HOSTNAME": "progetti.cnxf2fvitdqk.eu-central-1.rds.amazonaws.com",
                  "RDS_PORT": 3306,
                  "RDS_DB_NAME": "Progetto1",
                  "RDS_USERNAME": "root",
                  "RDS_PASSWORD": "Alberto1"
                }
              }
            },
            "DependsOn": [
              "GetLogGroup",
              "IamRoleLambdaExecution"
            ]
          },
          "GetLambdaVersionvgZzrGk71ACw5Im4OBHVaewQg6vAvlfuLJ7ae0MI": {
            "Type": "AWS::Lambda::Version",
            "DeletionPolicy": "Retain",
            "Properties": {
              "FunctionName": {
                "Ref": "GetLambdaFunction"
              },
              "CodeSha256": "63cuX0CuQ059Qlg3Bud3Dc4wNldRcNsuLQuP0gnJSZs="
            }
          },
          "PostLambdaFunction": {
            "Type": "AWS::Lambda::Function",
            "Properties": {
              "Code": {
                "S3Bucket": {
                  "Ref": "ServerlessDeploymentBucket"
                },
                "S3Key": "serverless/G3-PhotoAlbum/development/1523397578193-2018-04-10T21:59:38.193Z/G3-PhotoAlbum.zip"
              },
              "FunctionName": "G3-PhotoAlbum-development-post",
              "Handler": "PhotoAlbum/post.handler",
              "MemorySize": 1024,
              "Role": {
                "Fn::GetAtt": [
                  "IamRoleLambdaExecution",
                  "Arn"
                ]
              },
              "Runtime": "nodejs6.10",
              "Timeout": 6,
              "Environment": {
                "Variables": {
                  "RDS_HOSTNAME": "progetti.cnxf2fvitdqk.eu-central-1.rds.amazonaws.com",
                  "RDS_PORT": 3306,
                  "RDS_DB_NAME": "Progetto1",
                  "RDS_USERNAME": "root",
                  "RDS_PASSWORD": "Alberto1"
                }
              }
            },
            "DependsOn": [
              "PostLogGroup",
              "IamRoleLambdaExecution"
            ]
          },
          "PostLambdaVersion21IblzkFE99cxhT3TkGGYkJoaCVyla0QCfjjfpCOjs": {
            "Type": "AWS::Lambda::Version",
            "DeletionPolicy": "Retain",
            "Properties": {
              "FunctionName": {
                "Ref": "PostLambdaFunction"
              },
              "CodeSha256": "63cuX0CuQ059Qlg3Bud3Dc4wNldRcNsuLQuP0gnJSZs="
            }
          },
          "GetSingleLambdaFunction": {
            "Type": "AWS::Lambda::Function",
            "Properties": {
              "Code": {
                "S3Bucket": {
                  "Ref": "ServerlessDeploymentBucket"
                },
                "S3Key": "serverless/G3-PhotoAlbum/development/1523397578193-2018-04-10T21:59:38.193Z/G3-PhotoAlbum.zip"
              },
              "FunctionName": "G3-PhotoAlbum-development-getSingle",
              "Handler": "PhotoAlbum/getSingle.handler",
              "MemorySize": 1024,
              "Role": {
                "Fn::GetAtt": [
                  "IamRoleLambdaExecution",
                  "Arn"
                ]
              },
              "Runtime": "nodejs6.10",
              "Timeout": 6,
              "Environment": {
                "Variables": {
                  "RDS_HOSTNAME": "progetti.cnxf2fvitdqk.eu-central-1.rds.amazonaws.com",
                  "RDS_PORT": 3306,
                  "RDS_DB_NAME": "Progetto1",
                  "RDS_USERNAME": "root",
                  "RDS_PASSWORD": "Alberto1"
                }
              }
            },
            "DependsOn": [
              "GetSingleLogGroup",
              "IamRoleLambdaExecution"
            ]
          },
          "GetSingleLambdaVersionFB2Yp03co8wbPHCcoiXr6T1WErsg0ae1cUBLPCt42YM": {
            "Type": "AWS::Lambda::Version",
            "DeletionPolicy": "Retain",
            "Properties": {
              "FunctionName": {
                "Ref": "GetSingleLambdaFunction"
              },
              "CodeSha256": "63cuX0CuQ059Qlg3Bud3Dc4wNldRcNsuLQuP0gnJSZs="
            }
          },
          "PutSingleLambdaFunction": {
            "Type": "AWS::Lambda::Function",
            "Properties": {
              "Code": {
                "S3Bucket": {
                  "Ref": "ServerlessDeploymentBucket"
                },
                "S3Key": "serverless/G3-PhotoAlbum/development/1523397578193-2018-04-10T21:59:38.193Z/G3-PhotoAlbum.zip"
              },
              "FunctionName": "G3-PhotoAlbum-development-putSingle",
              "Handler": "PhotoAlbum/putSingle.handler",
              "MemorySize": 1024,
              "Role": {
                "Fn::GetAtt": [
                  "IamRoleLambdaExecution",
                  "Arn"
                ]
              },
              "Runtime": "nodejs6.10",
              "Timeout": 6,
              "Environment": {
                "Variables": {
                  "RDS_HOSTNAME": "progetti.cnxf2fvitdqk.eu-central-1.rds.amazonaws.com",
                  "RDS_PORT": 3306,
                  "RDS_DB_NAME": "Progetto1",
                  "RDS_USERNAME": "root",
                  "RDS_PASSWORD": "Alberto1"
                }
              }
            },
            "DependsOn": [
              "PutSingleLogGroup",
              "IamRoleLambdaExecution"
            ]
          },
          "PutSingleLambdaVersion5ZVon7JZxEx3qdaQzquGjpVn2Jx9Vzt4acsiZqRkYc": {
            "Type": "AWS::Lambda::Version",
            "DeletionPolicy": "Retain",
            "Properties": {
              "FunctionName": {
                "Ref": "PutSingleLambdaFunction"
              },
              "CodeSha256": "63cuX0CuQ059Qlg3Bud3Dc4wNldRcNsuLQuP0gnJSZs="
            }
          },
          "DeleteSingleLambdaFunction": {
            "Type": "AWS::Lambda::Function",
            "Properties": {
              "Code": {
                "S3Bucket": {
                  "Ref": "ServerlessDeploymentBucket"
                },
                "S3Key": "serverless/G3-PhotoAlbum/development/1523397578193-2018-04-10T21:59:38.193Z/G3-PhotoAlbum.zip"
              },
              "FunctionName": "G3-PhotoAlbum-development-deleteSingle",
              "Handler": "PhotoAlbum/deleteSingle.handler",
              "MemorySize": 1024,
              "Role": {
                "Fn::GetAtt": [
                  "IamRoleLambdaExecution",
                  "Arn"
                ]
              },
              "Runtime": "nodejs6.10",
              "Timeout": 6,
              "Environment": {
                "Variables": {
                  "RDS_HOSTNAME": "progetti.cnxf2fvitdqk.eu-central-1.rds.amazonaws.com",
                  "RDS_PORT": 3306,
                  "RDS_DB_NAME": "Progetto1",
                  "RDS_USERNAME": "root",
                  "RDS_PASSWORD": "Alberto1"
                }
              }
            },
            "DependsOn": [
              "DeleteSingleLogGroup",
              "IamRoleLambdaExecution"
            ]
          },
          "DeleteSingleLambdaVersionS0U5QeNudScSgdtnIGxpV6F9p1mvJai7XDjFkzCc": {
            "Type": "AWS::Lambda::Version",
            "DeletionPolicy": "Retain",
            "Properties": {
              "FunctionName": {
                "Ref": "DeleteSingleLambdaFunction"
              },
              "CodeSha256": "63cuX0CuQ059Qlg3Bud3Dc4wNldRcNsuLQuP0gnJSZs="
            }
          },
          "ApiGatewayRestApi": {
            "Type": "AWS::ApiGateway::RestApi",
            "Properties": {
              "Name": "development-G3-PhotoAlbum",
              "EndpointConfiguration": {
                "Types": [
                  "EDGE"
                ]
              }
            }
          },
          "ApiGatewayResourcePhotoalbum": {
            "Type": "AWS::ApiGateway::Resource",
            "Properties": {
              "ParentId": {
                "Fn::GetAtt": [
                  "ApiGatewayRestApi",
                  "RootResourceId"
                ]
              },
              "PathPart": "photoalbum",
              "RestApiId": {
                "Ref": "ApiGatewayRestApi"
              }
            }
          },
          "ApiGatewayResourcePhotoalbumIdVar": {
            "Type": "AWS::ApiGateway::Resource",
            "Properties": {
              "ParentId": {
                "Ref": "ApiGatewayResourcePhotoalbum"
              },
              "PathPart": "{id}",
              "RestApiId": {
                "Ref": "ApiGatewayRestApi"
              }
            }
          },
          "ApiGatewayMethodPhotoalbumGet": {
            "Type": "AWS::ApiGateway::Method",
            "Properties": {
              "HttpMethod": "GET",
              "RequestParameters": {},
              "ResourceId": {
                "Ref": "ApiGatewayResourcePhotoalbum"
              },
              "RestApiId": {
                "Ref": "ApiGatewayRestApi"
              },
              "ApiKeyRequired": false,
              "AuthorizationType": "NONE",
              "Integration": {
                "IntegrationHttpMethod": "POST",
                "Type": "AWS_PROXY",
                "Uri": {
                  "Fn::Join": [
                    "",
                    [
                      "arn:aws:apigateway:",
                      {
                        "Ref": "AWS::Region"
                      },
                      ":lambda:path/2015-03-31/functions/",
                      {
                        "Fn::GetAtt": [
                          "GetLambdaFunction",
                          "Arn"
                        ]
                      },
                      "/invocations"
                    ]
                  ]
                }
              },
              "MethodResponses": []
            }
          },
          "ApiGatewayMethodPhotoalbumPost": {
            "Type": "AWS::ApiGateway::Method",
            "Properties": {
              "HttpMethod": "POST",
              "RequestParameters": {},
              "ResourceId": {
                "Ref": "ApiGatewayResourcePhotoalbum"
              },
              "RestApiId": {
                "Ref": "ApiGatewayRestApi"
              },
              "ApiKeyRequired": false,
              "AuthorizationType": "NONE",
              "Integration": {
                "IntegrationHttpMethod": "POST",
                "Type": "AWS_PROXY",
                "Uri": {
                  "Fn::Join": [
                    "",
                    [
                      "arn:aws:apigateway:",
                      {
                        "Ref": "AWS::Region"
                      },
                      ":lambda:path/2015-03-31/functions/",
                      {
                        "Fn::GetAtt": [
                          "PostLambdaFunction",
                          "Arn"
                        ]
                      },
                      "/invocations"
                    ]
                  ]
                }
              },
              "MethodResponses": []
            }
          },
          "ApiGatewayMethodPhotoalbumIdVarGet": {
            "Type": "AWS::ApiGateway::Method",
            "Properties": {
              "HttpMethod": "GET",
              "RequestParameters": {},
              "ResourceId": {
                "Ref": "ApiGatewayResourcePhotoalbumIdVar"
              },
              "RestApiId": {
                "Ref": "ApiGatewayRestApi"
              },
              "ApiKeyRequired": false,
              "AuthorizationType": "NONE",
              "Integration": {
                "IntegrationHttpMethod": "POST",
                "Type": "AWS_PROXY",
                "Uri": {
                  "Fn::Join": [
                    "",
                    [
                      "arn:aws:apigateway:",
                      {
                        "Ref": "AWS::Region"
                      },
                      ":lambda:path/2015-03-31/functions/",
                      {
                        "Fn::GetAtt": [
                          "GetSingleLambdaFunction",
                          "Arn"
                        ]
                      },
                      "/invocations"
                    ]
                  ]
                }
              },
              "MethodResponses": []
            }
          },
          "ApiGatewayMethodPhotoalbumIdVarPut": {
            "Type": "AWS::ApiGateway::Method",
            "Properties": {
              "HttpMethod": "PUT",
              "RequestParameters": {},
              "ResourceId": {
                "Ref": "ApiGatewayResourcePhotoalbumIdVar"
              },
              "RestApiId": {
                "Ref": "ApiGatewayRestApi"
              },
              "ApiKeyRequired": false,
              "AuthorizationType": "NONE",
              "Integration": {
                "IntegrationHttpMethod": "POST",
                "Type": "AWS_PROXY",
                "Uri": {
                  "Fn::Join": [
                    "",
                    [
                      "arn:aws:apigateway:",
                      {
                        "Ref": "AWS::Region"
                      },
                      ":lambda:path/2015-03-31/functions/",
                      {
                        "Fn::GetAtt": [
                          "PutSingleLambdaFunction",
                          "Arn"
                        ]
                      },
                      "/invocations"
                    ]
                  ]
                }
              },
              "MethodResponses": []
            }
          },
          "ApiGatewayMethodPhotoalbumIdVarDelete": {
            "Type": "AWS::ApiGateway::Method",
            "Properties": {
              "HttpMethod": "DELETE",
              "RequestParameters": {},
              "ResourceId": {
                "Ref": "ApiGatewayResourcePhotoalbumIdVar"
              },
              "RestApiId": {
                "Ref": "ApiGatewayRestApi"
              },
              "ApiKeyRequired": false,
              "AuthorizationType": "NONE",
              "Integration": {
                "IntegrationHttpMethod": "POST",
                "Type": "AWS_PROXY",
                "Uri": {
                  "Fn::Join": [
                    "",
                    [
                      "arn:aws:apigateway:",
                      {
                        "Ref": "AWS::Region"
                      },
                      ":lambda:path/2015-03-31/functions/",
                      {
                        "Fn::GetAtt": [
                          "DeleteSingleLambdaFunction",
                          "Arn"
                        ]
                      },
                      "/invocations"
                    ]
                  ]
                }
              },
              "MethodResponses": []
            }
          },
          "ApiGatewayDeployment1523397578224": {
            "Type": "AWS::ApiGateway::Deployment",
            "Properties": {
              "RestApiId": {
                "Ref": "ApiGatewayRestApi"
              },
              "StageName": "development"
            },
            "DependsOn": [
              "ApiGatewayMethodPhotoalbumGet",
              "ApiGatewayMethodPhotoalbumPost",
              "ApiGatewayMethodPhotoalbumIdVarGet",
              "ApiGatewayMethodPhotoalbumIdVarPut",
              "ApiGatewayMethodPhotoalbumIdVarDelete"
            ]
          },
          "GetLambdaPermissionApiGateway": {
            "Type": "AWS::Lambda::Permission",
            "Properties": {
              "FunctionName": {
                "Fn::GetAtt": [
                  "GetLambdaFunction",
                  "Arn"
                ]
              },
              "Action": "lambda:InvokeFunction",
              "Principal": "apigateway.amazonaws.com",
              "SourceArn": {
                "Fn::Join": [
                  "",
                  [
                    "arn:aws:execute-api:",
                    {
                      "Ref": "AWS::Region"
                    },
                    ":",
                    {
                      "Ref": "AWS::AccountId"
                    },
                    ":",
                    {
                      "Ref": "ApiGatewayRestApi"
                    },
                    "/*/*"
                  ]
                ]
              }
            }
          },
          "PostLambdaPermissionApiGateway": {
            "Type": "AWS::Lambda::Permission",
            "Properties": {
              "FunctionName": {
                "Fn::GetAtt": [
                  "PostLambdaFunction",
                  "Arn"
                ]
              },
              "Action": "lambda:InvokeFunction",
              "Principal": "apigateway.amazonaws.com",
              "SourceArn": {
                "Fn::Join": [
                  "",
                  [
                    "arn:aws:execute-api:",
                    {
                      "Ref": "AWS::Region"
                    },
                    ":",
                    {
                      "Ref": "AWS::AccountId"
                    },
                    ":",
                    {
                      "Ref": "ApiGatewayRestApi"
                    },
                    "/*/*"
                  ]
                ]
              }
            }
          },
          "GetSingleLambdaPermissionApiGateway": {
            "Type": "AWS::Lambda::Permission",
            "Properties": {
              "FunctionName": {
                "Fn::GetAtt": [
                  "GetSingleLambdaFunction",
                  "Arn"
                ]
              },
              "Action": "lambda:InvokeFunction",
              "Principal": "apigateway.amazonaws.com",
              "SourceArn": {
                "Fn::Join": [
                  "",
                  [
                    "arn:aws:execute-api:",
                    {
                      "Ref": "AWS::Region"
                    },
                    ":",
                    {
                      "Ref": "AWS::AccountId"
                    },
                    ":",
                    {
                      "Ref": "ApiGatewayRestApi"
                    },
                    "/*/*"
                  ]
                ]
              }
            }
          },
          "PutSingleLambdaPermissionApiGateway": {
            "Type": "AWS::Lambda::Permission",
            "Properties": {
              "FunctionName": {
                "Fn::GetAtt": [
                  "PutSingleLambdaFunction",
                  "Arn"
                ]
              },
              "Action": "lambda:InvokeFunction",
              "Principal": "apigateway.amazonaws.com",
              "SourceArn": {
                "Fn::Join": [
                  "",
                  [
                    "arn:aws:execute-api:",
                    {
                      "Ref": "AWS::Region"
                    },
                    ":",
                    {
                      "Ref": "AWS::AccountId"
                    },
                    ":",
                    {
                      "Ref": "ApiGatewayRestApi"
                    },
                    "/*/*"
                  ]
                ]
              }
            }
          },
          "DeleteSingleLambdaPermissionApiGateway": {
            "Type": "AWS::Lambda::Permission",
            "Properties": {
              "FunctionName": {
                "Fn::GetAtt": [
                  "DeleteSingleLambdaFunction",
                  "Arn"
                ]
              },
              "Action": "lambda:InvokeFunction",
              "Principal": "apigateway.amazonaws.com",
              "SourceArn": {
                "Fn::Join": [
                  "",
                  [
                    "arn:aws:execute-api:",
                    {
                      "Ref": "AWS::Region"
                    },
                    ":",
                    {
                      "Ref": "AWS::AccountId"
                    },
                    ":",
                    {
                      "Ref": "ApiGatewayRestApi"
                    },
                    "/*/*"
                  ]
                ]
              }
            }
          }
        },
        "Outputs": {
          "ServerlessDeploymentBucketName": {
            "Value": {
              "Ref": "ServerlessDeploymentBucket"
            }
          },
          "GetLambdaFunctionQualifiedArn": {
            "Description": "Current Lambda function version",
            "Value": {
              "Ref": "GetLambdaVersionvgZzrGk71ACw5Im4OBHVaewQg6vAvlfuLJ7ae0MI"
            }
          },
          "PostLambdaFunctionQualifiedArn": {
            "Description": "Current Lambda function version",
            "Value": {
              "Ref": "PostLambdaVersion21IblzkFE99cxhT3TkGGYkJoaCVyla0QCfjjfpCOjs"
            }
          },
          "GetSingleLambdaFunctionQualifiedArn": {
            "Description": "Current Lambda function version",
            "Value": {
              "Ref": "GetSingleLambdaVersionFB2Yp03co8wbPHCcoiXr6T1WErsg0ae1cUBLPCt42YM"
            }
          },
          "PutSingleLambdaFunctionQualifiedArn": {
            "Description": "Current Lambda function version",
            "Value": {
              "Ref": "PutSingleLambdaVersion5ZVon7JZxEx3qdaQzquGjpVn2Jx9Vzt4acsiZqRkYc"
            }
          },
          "DeleteSingleLambdaFunctionQualifiedArn": {
            "Description": "Current Lambda function version",
            "Value": {
              "Ref": "DeleteSingleLambdaVersionS0U5QeNudScSgdtnIGxpV6F9p1mvJai7XDjFkzCc"
            }
          },
          "ServiceEndpoint": {
            "Description": "URL of the service endpoint",
            "Value": {
              "Fn::Join": [
                "",
                [
                  "https://",
                  {
                    "Ref": "ApiGatewayRestApi"
                  },
                  ".execute-api.eu-central-1.amazonaws.com/development"
                ]
              ]
            }
          }
        }
      },
      "coreCloudFormationTemplate": {
        "AWSTemplateFormatVersion": "2010-09-09",
        "Description": "The AWS CloudFormation template for this Serverless application",
        "Resources": {
          "ServerlessDeploymentBucket": {
            "Type": "AWS::S3::Bucket"
          }
        },
        "Outputs": {
          "ServerlessDeploymentBucketName": {
            "Value": {
              "Ref": "ServerlessDeploymentBucket"
            }
          }
        }
      },
      "vpc": {}
    },
    "functions": {
      "get": {
        "handler": "PhotoAlbum/get.handler",
        "events": [
          {
            "http": {
              "path": "photoalbum",
              "method": "get",
              "cors": false,
              "integration": "AWS_PROXY"
            }
          }
        ],
        "name": "G3-PhotoAlbum-development-get",
        "package": {},
        "vpc": {}
      },
      "post": {
        "handler": "PhotoAlbum/post.handler",
        "events": [
          {
            "http": {
              "path": "photoalbum",
              "method": "post",
              "cors": false,
              "integration": "AWS_PROXY"
            }
          }
        ],
        "name": "G3-PhotoAlbum-development-post",
        "package": {},
        "vpc": {}
      },
      "getSingle": {
        "handler": "PhotoAlbum/getSingle.handler",
        "events": [
          {
            "http": {
              "path": "photoalbum/{id}",
              "method": "get",
              "cors": false,
              "integration": "AWS_PROXY"
            }
          }
        ],
        "name": "G3-PhotoAlbum-development-getSingle",
        "package": {},
        "vpc": {}
      },
      "putSingle": {
        "handler": "PhotoAlbum/putSingle.handler",
        "events": [
          {
            "http": {
              "path": "photoalbum/{id}",
              "method": "put",
              "cors": false,
              "integration": "AWS_PROXY"
            }
          }
        ],
        "name": "G3-PhotoAlbum-development-putSingle",
        "package": {},
        "vpc": {}
      },
      "deleteSingle": {
        "handler": "PhotoAlbum/deleteSingle.handler",
        "events": [
          {
            "http": {
              "path": "photoalbum/{id}",
              "method": "delete",
              "cors": false,
              "integration": "AWS_PROXY"
            }
          }
        ],
        "name": "G3-PhotoAlbum-development-deleteSingle",
        "package": {},
        "vpc": {}
      }
    },
    "artifact": "d:\\projects\\git\\PhotoAlbum\\node_g3\\.serverless\\G3-PhotoAlbum.zip"
  },
  "package": {
    "artifactDirectoryName": "serverless/G3-PhotoAlbum/development/1523397578193-2018-04-10T21:59:38.193Z",
    "artifact": "G3-PhotoAlbum.zip"
  }
}